{
    "caption": "Національний природний парк “Синевир”",
    "mapGeneral": {
        "lat": 48.512494,
        "lng": 23.708839,
        "zoom": 11
    },
    "marker": {
        "lat": 48.512494,
        "lng": 23.708839
    }
}