{
    "caption": "Одеський зоопарк",
    "mapGeneral": {
        "lat": 46.466513,
        "lng": 30.731839,
        "zoom": 16
    },
    "marker": {
        "lat": 46.466513,
        "lng": 30.731839
    }
}